<?xml version="1.0" standalone="no"?>
<!DOCTYPE svg PUBLIC "-//W3C//DTD SVG 20010904//EN"
 "http://www.w3.org/TR/2001/REC-SVG-20010904/DTD/svg10.dtd">
<svg version="1.0" xmlns="http://www.w3.org/2000/svg"
 width="349.000000pt" height="349.000000pt" viewBox="0 0 349.000000 349.000000"
 preserveAspectRatio="xMidYMid meet">

<g transform="translate(0.000000,349.000000) scale(0.100000,-0.100000)"
fill="#000000" stroke="none">
<path d="M3461 3378 c1 -62 7 -394 13 -738 l13 -625 1 738 c2 649 0 737 -13
737 -13 0 -15 -19 -14 -112z"/>
<path d="M1977 3299 c7 -7 15 -10 18 -7 3 3 -2 9 -12 12 -14 6 -15 5 -6 -5z"/>
<path d="M1816 3288 c-9 -5 -14 -13 -11 -19 8 -12 -27 -12 -62 2 -19 7 -29 7
-31 0 -2 -6 -16 -8 -31 -5 -16 4 -32 1 -35 -5 -4 -6 -1 -11 8 -11 8 0 18 -5
22 -12 5 -7 3 -8 -5 -4 -20 13 -101 -3 -101 -20 0 -8 -7 -14 -16 -14 -21 0
-62 -32 -57 -46 2 -5 -12 -16 -32 -23 -30 -10 -135 -102 -135 -117 0 -3 8 -3
19 1 10 3 24 -1 31 -10 10 -13 9 -15 -10 -15 -13 0 -37 -14 -55 -32 -18 -17
-43 -33 -55 -35 -19 -3 -18 0 9 23 31 26 33 44 5 44 -18 0 -44 -24 -44 -40 0
-6 -4 -9 -8 -6 -5 3 -15 -6 -22 -19 -7 -13 -16 -23 -19 -22 -3 2 -19 -10 -35
-25 -25 -24 -26 -28 -9 -28 10 0 30 8 43 17 14 10 27 17 30 16 3 -1 4 9 3 23
-2 21 0 22 13 10 8 -9 22 -12 30 -9 12 4 15 1 12 -13 -2 -10 -10 -19 -18 -19
-23 -1 -41 -15 -34 -27 4 -7 2 -8 -4 -4 -7 4 -12 2 -12 -4 0 -7 -14 -10 -37
-7 -53 5 -69 -17 -77 -103 -8 -81 -8 -86 7 -82 7 2 2 -7 -11 -21 -13 -13 -22
-28 -20 -33 5 -15 -56 -69 -74 -66 -10 2 -22 -9 -32 -29 -20 -40 -20 -49 -1
-49 8 0 15 -4 15 -10 0 -5 -7 -10 -15 -10 -8 0 -15 -4 -15 -9 0 -5 -8 -7 -18
-4 -19 5 -20 2 -25 -52 -2 -21 -7 -30 -20 -29 -27 3 -20 -13 11 -24 l27 -9
-35 -21 c-19 -12 -28 -22 -20 -22 11 0 11 -3 -3 -17 -14 -15 -21 -16 -37 -5
-11 7 -20 9 -19 5 3 -21 -2 -33 -15 -33 -7 0 -19 -7 -26 -15 -10 -13 -9 -15 8
-15 12 0 27 9 35 20 11 15 24 20 50 18 19 -1 42 3 49 10 12 9 15 8 15 -6 0 -9
-4 -20 -9 -23 -5 -3 -2 -13 6 -22 17 -16 22 -42 7 -33 -4 3 -14 -13 -21 -36
l-12 -42 -15 24 c-14 25 -14 25 -9 -8 4 -21 -1 -43 -13 -66 -13 -22 -16 -37
-10 -43 7 -7 5 -16 -5 -26 -9 -9 -16 -20 -16 -26 0 -5 -4 -12 -9 -15 -5 -4 -8
9 -7 29 l3 35 -24 -24 c-30 -30 -28 -71 2 -71 11 0 23 -4 28 -10 4 -6 11 -4
17 5 7 11 10 11 10 2 0 -7 -7 -15 -15 -18 -8 -4 -15 -13 -15 -20 0 -8 -7 -17
-15 -20 -8 -4 -15 -12 -15 -20 0 -8 -4 -14 -10 -14 -5 0 -10 -9 -10 -20 0 -22
-15 -27 -23 -7 -3 7 -6 5 -6 -6 -1 -9 -4 -16 -9 -16 -4 1 -14 1 -22 0 -13 -1
-13 -3 0 -10 8 -6 18 -7 22 -5 4 3 8 0 8 -7 0 -12 -9 -23 -94 -113 -65 -69
-116 -213 -73 -210 28 3 19 -16 -16 -31 -17 -8 -27 -14 -20 -15 6 0 9 -9 6
-20 -4 -15 -2 -19 10 -14 17 6 43 -31 28 -41 -6 -3 -6 -17 -1 -34 9 -34 3 -46
-17 -30 -9 9 -13 8 -13 0 0 -10 7 -12 26 -10 3 0 12 -8 20 -18 12 -16 12 -15
5 13 -7 25 -5 33 10 42 15 10 17 9 13 -3 -3 -7 -1 -22 4 -31 7 -13 5 -22 -8
-36 -10 -11 -20 -31 -23 -45 -4 -22 -2 -24 19 -20 13 2 23 1 22 -2 -2 -22 4
-41 13 -41 6 0 8 9 4 23 -5 15 2 10 19 -15 14 -20 26 -41 26 -46 0 -12 50 -78
50 -66 1 10 30 -26 30 -37 0 -4 -20 -10 -45 -13 -44 -7 -56 -18 -34 -31 6 -4
34 -7 63 -6 l53 0 13 -42 c7 -23 21 -54 32 -69 15 -21 17 -32 8 -47 -5 -11
-10 -31 -10 -45 0 -21 -5 -26 -24 -26 -45 0 -58 -52 -16 -65 20 -6 30 -33 30
-83 0 -45 -20 -49 -71 -13 -46 34 -75 41 -65 15 3 -9 6 -22 6 -30 0 -10 7 -13
24 -8 14 3 29 0 39 -10 8 -9 20 -16 26 -16 6 0 8 -6 5 -14 -3 -8 -1 -17 4 -20
12 -7 4 -46 -9 -46 -6 0 -13 -10 -17 -21 -7 -19 -10 -19 -23 -7 -10 11 -27 13
-59 9 -62 -8 -67 -38 -14 -86 21 -19 42 -35 47 -35 4 0 15 -6 22 -14 15 -15
11 -118 -6 -163 l-9 -23 628 0 c535 1 630 3 646 15 17 13 17 15 4 15 -12 0
-20 16 -29 55 -7 30 -16 52 -22 48 -6 -3 -7 10 -3 34 6 34 3 43 -19 65 -16 17
-21 28 -14 30 8 3 9 9 3 19 -5 8 -9 41 -10 74 -1 33 0 54 3 48 11 -31 20 -8
18 46 -3 68 -9 81 -35 81 -10 0 -22 5 -25 10 -3 6 -1 10 4 10 6 0 11 6 11 14
0 9 7 12 19 9 11 -3 21 2 24 11 4 10 1 16 -8 16 -22 0 -30 22 -11 32 11 6 15
16 11 29 -8 24 16 35 45 19 14 -7 19 -17 16 -27 -6 -14 -4 -14 11 -2 10 8 25
22 34 32 11 11 42 21 85 26 45 6 90 20 129 41 33 18 74 40 90 49 52 28 130 94
154 131 12 19 35 50 50 68 l28 32 26 -21 c15 -11 27 -17 27 -12 0 4 5 1 10 -8
6 -10 18 -15 33 -12 21 4 29 -3 56 -51 32 -55 67 -79 81 -56 6 9 9 9 15 1 5
-9 10 -9 21 0 10 8 14 8 14 0 0 -6 7 -11 16 -11 9 0 23 -8 30 -17 12 -16 13
-16 14 9 0 38 -10 58 -26 51 -18 -7 -18 21 0 62 l13 30 8 -34 c5 -25 10 -30
16 -20 6 10 9 8 9 -8 0 -14 6 -23 15 -23 10 0 15 -7 13 -18 -2 -12 3 -16 16
-14 15 3 18 1 10 -10 -6 -7 -10 -26 -9 -41 1 -23 -3 -27 -17 -24 -10 3 -18 1
-18 -4 0 -5 7 -9 15 -9 9 0 26 -9 38 -21 12 -11 37 -27 55 -34 18 -8 40 -22
49 -30 12 -12 18 -13 23 -4 4 6 12 9 16 6 5 -3 25 2 44 12 l35 16 0 75 c1 101
-11 136 -65 187 -24 24 -38 43 -31 43 8 0 23 -7 33 -17 33 -30 19 4 -17 40
-32 32 -46 60 -27 55 11 -4 66 52 75 75 5 12 1 17 -13 17 -11 0 -20 5 -20 10
0 6 5 9 12 8 22 -5 20 29 -3 35 -17 5 -21 11 -17 36 2 17 1 32 -3 33 -9 4 -19
77 -10 82 3 2 6 19 5 38 -1 18 4 36 10 40 7 5 4 8 -6 8 -10 0 -18 5 -18 11 0
6 7 9 15 5 23 -9 18 3 -17 35 -24 22 -39 28 -56 24 -15 -4 -21 -2 -17 5 8 13
38 13 52 -1 7 -7 12 -6 16 5 4 9 2 16 -4 16 -6 0 -8 4 -5 9 3 5 -1 14 -10 21
-12 11 -12 15 -2 21 9 6 7 9 -7 9 -17 0 -17 2 -5 10 12 8 12 10 -5 10 -15 0
-17 2 -6 9 9 6 10 11 2 15 -6 4 -11 4 -11 -1 -1 -18 -29 44 -31 67 -1 18 -3
20 -6 7 -5 -18 -5 -18 -19 0 -15 21 -19 67 -4 58 6 -3 10 1 10 9 0 9 -7 16
-15 16 -13 0 -13 2 -3 14 7 7 19 11 25 9 7 -3 13 0 13 7 0 6 -5 8 -10 5 -6 -3
-15 6 -20 20 -13 34 -13 35 5 35 8 0 15 -8 15 -17 0 -14 2 -15 9 -5 7 11 10
10 15 -3 3 -9 4 -21 0 -26 -3 -5 4 -9 15 -9 18 0 19 3 11 26 -14 35 -92 124
-110 124 -13 0 -13 1 0 10 12 7 13 15 3 40 -10 26 -9 32 3 37 23 9 17 43 -8
44 -13 0 -17 3 -10 6 38 15 -21 139 -71 150 -15 3 -25 8 -22 11 3 3 -2 14 -12
24 -9 10 -11 18 -5 18 6 0 10 9 9 19 0 10 -6 17 -12 15 -6 -3 -10 11 -10 34 0
35 -35 99 -47 86 -3 -2 -11 2 -18 11 -10 12 -10 15 4 15 12 0 10 10 -14 50
-17 28 -30 55 -30 60 0 6 -6 10 -12 10 -10 0 -10 2 0 9 11 6 10 10 -3 15 -9 3
-15 13 -12 20 6 15 -13 27 -41 25 -10 -1 -7 -4 8 -9 22 -7 21 -8 -12 -9 -22
-1 -38 4 -38 10 0 6 -7 8 -16 5 -8 -3 -12 -2 -9 4 4 6 -9 10 -32 10 -29 1 -34
3 -21 10 11 7 26 7 43 0 39 -15 82 -12 89 5 3 8 2 15 -2 15 -4 0 -18 16 -31
35 -13 19 -29 35 -35 35 -6 0 -27 16 -45 36 -28 29 -38 34 -61 29 -16 -3 -31
-2 -34 3 -4 6 3 8 16 5 l23 -5 -24 17 c-26 20 -166 31 -155 13 4 -5 18 -8 33
-5 14 3 34 0 44 -8 15 -11 11 -13 -30 -15 -64 -2 -95 -1 -101 5 -3 3 4 5 16 5
12 0 22 5 22 10 0 6 -22 10 -50 10 -31 0 -52 5 -57 14 -4 7 -19 13 -32 12 -43
-2 -35 22 11 31 27 6 43 14 43 23 0 8 7 15 15 15 8 0 16 8 18 18 3 15 -1 17
-25 11 -15 -4 -35 -10 -43 -15 -12 -7 -11 -9 5 -9 15 -1 13 -4 -10 -14 -16 -7
-32 -9 -34 -4 -1 5 -11 2 -21 -7 -10 -9 -16 -23 -13 -31 3 -8 0 -14 -7 -14 -6
0 -10 10 -8 22 2 15 -3 24 -15 26 -10 2 -17 0 -16 -5 3 -18 -3 -47 -8 -35 -2
6 -11 12 -19 12 -8 0 -14 5 -14 10 0 6 6 10 13 10 9 0 13 11 12 30 -1 16 4 31
12 34 7 3 13 -1 13 -9 0 -25 19 -17 35 14 l15 30 -35 -6 c-30 -5 -35 -3 -35
15 0 11 -3 22 -7 25 -5 2 -3 2 4 1 7 -2 15 1 17 5 3 5 20 11 38 15 33 7 33 7
12 24 -11 10 -23 24 -27 32 -3 10 -6 10 -6 3 -1 -7 -6 -13 -12 -13 -6 0 -8 8
-5 18 5 13 0 18 -17 19 -12 1 -32 5 -44 8 -16 4 -23 1 -23 -10 0 -19 -2 -19
-48 0 -57 24 -107 33 -126 23z m231 -44 c-3 -3 -12 -4 -19 -1 -8 3 -5 6 6 6
11 1 17 -2 13 -5z m-320 -21 c-4 -3 -2 -12 4 -19 12 -15 4 -34 -14 -34 -7 0
-30 5 -51 11 -29 8 -36 13 -25 20 8 5 21 6 30 4 9 -3 22 1 29 10 7 8 17 15 23
15 6 0 7 -3 4 -7z m313 -123 c0 -5 -7 -10 -15 -10 -8 0 -15 5 -15 10 0 6 7 10
15 10 8 0 15 -4 15 -10z m-224 -165 c-3 -8 -1 -15 4 -15 5 0 26 -17 47 -37 26
-27 36 -45 34 -62 -1 -13 3 -27 10 -31 23 -15 18 -72 -9 -97 -22 -21 -23 -23
-6 -24 14 -1 13 -3 -6 -8 -60 -19 -179 -83 -184 -99 -10 -37 -29 -149 -30
-179 -1 -11 -5 -19 -10 -15 -6 3 -6 -3 -1 -14 4 -10 11 -50 15 -89 9 -90 19
-126 40 -145 9 -8 15 -21 13 -27 -3 -9 7 -13 29 -14 37 -1 26 -5 -46 -14 -36
-5 -45 -10 -37 -18 6 -6 11 -14 11 -18 0 -11 -50 -3 -63 10 -33 33 -50 -7 -19
-46 15 -20 45 -28 120 -32 17 -1 15 -21 -3 -21 -8 0 -15 -4 -15 -10 0 -5 11
-10 24 -10 36 0 41 -27 8 -44 -15 -7 -32 -11 -38 -9 -6 2 -35 -5 -63 -16 l-52
-20 -34 23 c-19 13 -31 26 -28 29 3 4 -8 2 -25 -2 -27 -8 -35 -6 -57 17 -25
24 -27 32 -23 88 3 47 10 71 32 103 16 22 36 43 45 46 37 13 71 55 82 102 6
26 18 71 27 99 18 62 10 89 -44 147 -33 35 -38 37 -98 37 l-63 0 8 48 c10 53
73 187 93 199 7 5 25 31 40 60 14 29 32 56 39 60 7 4 16 16 20 26 3 9 16 18
27 18 11 1 29 2 39 3 11 0 23 4 27 9 4 4 34 7 67 7 48 0 58 -3 53 -15z m711
-41 c-3 -3 -12 -4 -19 -1 -8 3 -5 6 6 6 11 1 17 -2 13 -5z m-1367 -78 c0 -3
-4 -8 -10 -11 -5 -3 -10 -1 -10 4 0 6 5 11 10 11 6 0 10 -2 10 -4z m14 -28
c-4 -13 -7 -28 -6 -35 3 -15 -15 -26 -28 -18 -6 4 -3 17 10 35 11 15 20 34 20
41 0 7 3 10 6 6 3 -3 2 -16 -2 -29z m1473 7 c0 -11 -4 -12 -14 -4 -7 6 -13 13
-13 15 0 2 6 4 13 4 8 0 14 -7 14 -15z m-1507 -79 c0 -3 -4 -8 -10 -11 -5 -3
-10 -1 -10 4 0 6 5 11 10 11 6 0 10 -2 10 -4z m905 -125 c10 -18 -15 -22 -42
-7 l-28 15 32 1 c17 0 34 -4 38 -9z m287 -46 c2 -25 0 -29 -16 -27 -18 3 -18
2 -2 -13 11 -11 14 -25 10 -42 -5 -18 -3 -24 5 -19 6 4 11 15 12 24 1 28 17
-18 18 -50 1 -16 4 -28 9 -28 4 0 13 -12 19 -27 10 -21 10 -29 1 -34 -9 -6 -9
-11 1 -23 10 -12 11 -19 2 -30 -6 -7 -11 -28 -11 -45 0 -17 0 -46 0 -63 0 -18
5 -34 10 -36 13 -5 13 -49 0 -57 -6 -4 -7 -23 -4 -44 3 -22 -1 -76 -11 -124
-9 -47 -14 -91 -10 -96 3 -6 -2 -11 -12 -11 -11 0 -29 -19 -46 -50 -20 -35
-35 -50 -50 -51 -12 0 -16 -3 -9 -6 16 -6 6 -23 -15 -23 -8 0 -29 -15 -46 -32
-19 -21 -32 -28 -34 -20 -7 20 -43 14 -43 -7 0 -12 -12 -25 -30 -33 -17 -7
-29 -19 -27 -28 2 -18 -58 -27 -76 -11 -7 5 -19 6 -26 2 -20 -13 -188 -14
-196 -1 -3 5 -14 10 -24 10 -40 0 -126 119 -103 142 6 6 15 4 23 -4 8 -7 32
-14 54 -15 22 -1 79 -4 128 -7 68 -4 87 -2 87 9 0 16 42 27 74 19 15 -3 27
-15 30 -30 8 -30 31 -31 41 -1 6 19 8 19 12 5 2 -10 9 -18 14 -18 15 0 20 42
18 155 -1 61 1 126 6 146 6 31 4 39 -14 51 -18 13 -28 13 -55 4 -19 -6 -41
-17 -49 -25 -9 -7 -21 -10 -27 -6 -5 3 -13 -1 -16 -9 -3 -9 -10 -16 -16 -16
-5 0 -6 5 -2 11 4 8 0 8 -15 0 -11 -7 -21 -16 -21 -21 0 -6 -9 -10 -21 -10
-20 0 -20 0 3 32 12 18 24 39 26 48 1 8 4 22 6 30 2 8 -1 21 -6 27 -6 7 -8 23
-4 35 4 17 -2 28 -22 45 -22 17 -25 24 -14 34 6 7 12 23 12 36 0 25 30 42 78
44 18 1 21 3 9 6 -19 5 -20 37 -2 39 58 4 115 21 139 41 20 17 38 23 60 21 27
-3 33 -9 44 -46 9 -27 18 -39 25 -35 7 4 22 6 35 4 12 -1 22 2 22 8 0 6 7 11
15 11 8 0 15 5 15 10 0 6 -5 10 -10 10 -6 0 -10 19 -9 43 1 23 -1 65 -4 93 -5
39 -3 55 8 64 10 8 13 21 9 39 -5 18 -3 23 4 16 6 -5 12 -23 14 -40z m-359 28
c-7 -2 -21 -2 -30 0 -10 3 -4 5 12 5 17 0 24 -2 18 -5z m-53 -138 c0 -8 8 -18
17 -24 16 -8 14 -10 -9 -16 -15 -4 -32 -4 -37 0 -14 8 -14 38 1 53 13 13 28 7
28 -13z m1000 -155 c0 -5 -2 -10 -4 -10 -3 0 -8 5 -11 10 -3 6 -1 10 4 10 6 0
11 -4 11 -10z m-2124 -516 c-11 -7 -22 -11 -25 -8 -3 3 3 12 13 20 11 7 22 11
25 8 3 -3 -3 -12 -13 -20z m727 1 c-7 -21 -13 -19 -13 6 0 11 4 18 10 14 5 -3
7 -12 3 -20z m287 18 c0 -5 -18 -16 -39 -26 -29 -13 -45 -15 -65 -7 -42 16
-30 29 32 33 31 2 60 4 65 5 4 1 7 -1 7 -5z m-260 -43 c0 -5 -2 -10 -4 -10 -3
0 -8 5 -11 10 -3 6 -1 10 4 10 6 0 11 -4 11 -10z m-815 -120 c3 -5 1 -10 -4
-10 -6 0 -11 5 -11 10 0 6 2 10 4 10 3 0 8 -4 11 -10z m45 -150 c0 -5 -4 -10
-10 -10 -5 0 -10 5 -10 10 0 6 5 10 10 10 6 0 10 -4 10 -10z m-178 -22 c-7 -7
-12 -8 -12 -2 0 14 12 26 19 19 2 -3 -1 -11 -7 -17z m178 -28 c0 -5 -4 -10
-10 -10 -5 0 -10 5 -10 10 0 6 5 10 10 10 6 0 10 -4 10 -10z m-5 -52 c-9 -40
-13 -48 -26 -48 -10 0 -4 53 8 73 12 20 24 4 18 -25z m-120 12 c3 -5 -1 -10
-9 -10 -9 0 -16 5 -16 10 0 6 4 10 9 10 6 0 13 -4 16 -10z m1408 -16 c9 -4 17
-11 17 -16 0 -5 5 -6 10 -3 10 6 14 -6 11 -37 -1 -10 3 -18 8 -18 6 0 11 5 11
11 0 5 5 7 10 4 6 -3 10 -17 10 -31 0 -13 6 -24 12 -24 7 0 -4 -12 -25 -27
-20 -14 -37 -32 -37 -39 0 -30 -24 -23 -61 16 l-40 43 22 23 c17 18 26 21 45
14 20 -8 24 -6 24 10 0 16 -7 19 -35 18 -36 -1 -60 11 -37 19 6 3 12 16 12 30
0 16 4 23 13 19 6 -3 20 -9 30 -12z m-1407 -162 c-11 -10 -15 4 -8 28 l7 25 3
-23 c2 -13 1 -26 -2 -30z m2514 -6 c0 -2 -7 -9 -15 -16 -13 -11 -14 -10 -9 4
5 14 24 23 24 12z m-40 -21 c0 -9 -6 -12 -16 -8 -13 5 -13 7 -2 14 17 11 18
11 18 -6z m-2343 -77 c-3 -8 -6 -5 -6 6 -1 11 2 17 5 13 3 -3 4 -12 1 -19z
m-90 -30 c-3 -8 -6 -5 -6 6 -1 11 2 17 5 13 3 -3 4 -12 1 -19z m2412 -219 c10
-28 9 -30 -12 -27 -12 2 -21 9 -19 16 1 6 -5 12 -13 12 -8 0 -19 9 -25 19 -8
16 -6 20 13 23 29 5 43 -6 56 -43z m-81 -23 c3 -25 2 -26 -16 -15 -12 8 -17
19 -14 31 7 27 26 17 30 -16z m77 -46 c3 -5 25 -7 49 -4 29 4 46 2 51 -6 11
-17 -13 -30 -56 -30 -28 0 -41 6 -53 25 -9 14 -12 25 -7 25 5 0 13 -4 16 -10z
m-2380 -493 c27 -16 32 -47 7 -47 -17 0 -52 37 -52 55 0 9 24 5 45 -8z"/>
<path d="M2005 2290 c-3 -6 1 -7 9 -4 18 7 21 14 7 14 -6 0 -13 -4 -16 -10z"/>
<path d="M2216 2241 c-20 -22 -15 -51 9 -51 8 0 15 -7 15 -15 0 -9 6 -12 15
-9 8 4 15 10 15 15 0 5 -7 9 -15 9 -22 0 -18 18 6 25 26 8 21 39 -7 43 -11 2
-28 -6 -38 -17z"/>
<path d="M2240 2010 c0 -5 5 -10 10 -10 6 0 10 5 10 10 0 6 -4 10 -10 10 -5 0
-10 -4 -10 -10z"/>
<path d="M2130 1986 c0 -9 5 -16 10 -16 6 0 10 4 10 9 0 6 -4 13 -10 16 -5 3
-10 -1 -10 -9z"/>
<path d="M2224 1955 c-4 -8 -1 -22 6 -30 7 -8 9 -22 6 -31 -4 -9 -1 -14 5 -12
17 6 17 88 1 88 -7 0 -15 -7 -18 -15z"/>
<path d="M2287 3179 c7 -7 15 -10 18 -7 3 3 -2 9 -12 12 -14 6 -15 5 -6 -5z"/>
<path d="M2115 3160 c-19 -8 -19 -9 3 -9 12 -1 22 4 22 9 0 6 -1 10 -2 9 -2 0
-12 -4 -23 -9z"/>
<path d="M2330 3150 c0 -5 5 -10 10 -10 6 0 10 5 10 10 0 6 -4 10 -10 10 -5 0
-10 -4 -10 -10z"/>
<path d="M2236 3122 c-3 -5 8 -6 25 -4 16 2 29 6 29 8 0 8 -49 4 -54 -4z"/>
<path d="M1290 3015 c-7 -8 -8 -15 -2 -15 5 0 15 7 22 15 7 8 8 15 2 15 -5 0
-15 -7 -22 -15z"/>
<path d="M745 2136 c-14 -10 -20 -30 -23 -76 -3 -48 -12 -75 -34 -109 -15 -25
-26 -52 -23 -59 3 -8 -4 -27 -16 -43 -27 -38 -16 -51 12 -16 11 15 26 27 33
27 7 0 22 11 34 25 21 24 17 36 -5 14 -7 -7 -13 -7 -17 -1 -3 6 8 25 24 42 29
31 31 37 28 106 -1 48 3 78 11 88 16 20 2 21 -24 2z"/>
<path d="M3060 1867 c-16 -13 -23 -47 -10 -47 5 0 14 -17 21 -37 12 -38 51
-83 71 -83 6 0 3 9 -6 19 -10 11 -15 24 -11 30 3 7 0 8 -9 5 -9 -3 -16 -1 -16
5 0 6 5 11 11 11 6 0 3 7 -6 16 -12 13 -13 19 -5 24 9 6 7 10 -5 17 -11 7 -14
13 -7 17 11 7 5 36 -7 36 -3 0 -13 -6 -21 -13z"/>
<path d="M732 1836 c-9 -20 -8 -25 9 -29 10 -3 17 -1 14 3 -3 5 1 15 9 23 8 8
12 17 9 21 -13 13 -30 5 -41 -18z"/>
<path d="M601 1779 c-7 -16 -11 -32 -8 -35 7 -8 47 47 41 57 -9 16 -19 10 -33
-22z"/>
<path d="M675 1789 c-16 -11 -24 -19 -17 -19 7 0 11 -4 8 -9 -12 -19 28 -3 41
16 19 29 4 34 -32 12z"/>
<path d="M411 1763 c-1 -38 16 -80 35 -87 16 -6 18 6 4 20 -6 6 -16 30 -24 55
-13 42 -14 43 -15 12z"/>
<path d="M576 1721 c-5 -8 -4 -16 2 -20 5 -3 17 -23 25 -43 9 -21 21 -38 26
-38 16 0 14 20 -1 20 -7 0 -2 9 12 20 14 10 21 22 17 27 -5 4 -12 1 -17 -7 -8
-12 -10 -12 -16 3 -3 9 -12 17 -19 17 -8 0 -15 8 -17 18 -3 13 -5 14 -12 3z"/>
<path d="M2 733 c-2 -668 -1 -733 14 -733 15 0 16 34 9 377 -4 208 -11 538
-15 733 -6 313 -7 268 -8 -377z"/>
<path d="M457 1294 c-12 -12 27 -33 61 -34 36 0 36 15 0 23 -13 2 -30 7 -39
11 -8 4 -18 4 -22 0z"/>
<path d="M471 1243 c-1 -6 -4 -20 -7 -30 -5 -17 -5 -17 6 0 6 10 9 23 6 30 -3
9 -5 9 -5 0z"/>
<path d="M3206 1184 c-5 -12 -2 -15 10 -10 8 3 22 6 30 6 9 0 12 5 9 10 -10
16 -42 12 -49 -6z"/>
<path d="M536 1109 c3 -5 11 -9 19 -9 8 0 16 4 19 9 3 5 -5 9 -19 9 -14 0 -22
-4 -19 -9z"/>
<path d="M2755 850 c3 -5 8 -10 11 -10 2 0 4 5 4 10 0 6 -5 10 -11 10 -5 0 -7
-4 -4 -10z"/>
<path d="M762 565 c0 -16 2 -22 5 -12 2 9 2 23 0 30 -3 6 -5 -1 -5 -18z"/>
<path d="M3416 535 c9 -22 23 -49 30 -60 14 -19 14 -19 14 3 0 13 -5 28 -10
35 -6 7 -19 23 -30 37 l-20 25 16 -40z"/>
<path d="M620 281 c0 -5 5 -13 10 -16 6 -3 10 -2 10 4 0 5 -4 13 -10 16 -5 3
-10 2 -10 -4z"/>
<path d="M180 160 c0 -5 5 -10 10 -10 6 0 10 5 10 10 0 6 -4 10 -10 10 -5 0
-10 -4 -10 -10z"/>
<path d="M225 146 c14 -20 14 -28 3 -45 -7 -12 -21 -21 -30 -21 -10 0 -18 -7
-18 -15 0 -8 -4 -15 -9 -15 -5 0 -11 -11 -13 -25 l-5 -25 141 0 141 1 -30 24
c-16 13 -50 40 -75 60 -121 97 -132 103 -105 61z"/>
</g>
</svg>
